Array size;Bubble sort - small values;Bubble sort - large values;Bubble sort - almost sorted;Bubble sort - decreasing;Select sort - small values;Select sort - large values;Select sort - almost sorted;Select sort - decreasing;Binary sort - small values;Binary sort - large values;Binary sort - almost sorted;Binary sort - decreasing;Count sort - small values;Count sort - large values;Count sort - almost sorted;Count sort - decreasing;Digital sort - small values;Digital sort - large values;Digital sort - almost sorted;Digital sort - decreasing;Quick sort - small values;Quick sort - large values;Quick sort - almost sorted;Quick sort - decreasing;Heap sort - small values;Heap sort - large values;Heap sort - almost sorted;Heap sort - decreasing;Merge sort - small values;Merge sort - large values;Merge sort - almost sorted;Merge sort - decreasing
50;71145;90570;44125;74520;17475;22790;11695;16415;16250;27745;9285;22415;5525;109220;72705;7000;23385;30420;22885;21350;7420;7935;5000;4975;20095;21285;20525;16945;16705;16530;14775;13540
100;228195;235525;156730;293725;48580;48585;46385;59800;44640;50835;14110;78565;8530;79400;78380;11420;28860;27430;27945;27520;16900;16325;9000;10395;47290;47455;50025;42230;35030;33675;30065;29230
150;559130;521315;358255;669780;113220;105660;91550;131235;107275;106270;29090;173020;12265;80505;80995;14885;37910;34760;35155;34025;28640;27435;13660;14765;74305;78640;81900;70790;58770;56115;49835;47305
200;936825;1.15928e+06;622980;1.16427e+06;187480;183775;163690;223640;158685;174865;36190;300150;16210;84810;85255;18740;44190;40810;40000;38205;37300;37260;19235;21395;104535;111620;114900;98725;79130;76290;67720;64645
250;1.4668e+06;1.43672e+06;971950;1.81714e+06;271730;275085;253025;351135;227020;267540;48990;460595;19005;87170;88835;23040;47330;46185;47535;47675;47150;48675;22745;25055;131500;142800;149740;130915;99140;99395;91035;83465
300;2.02044e+06;2.10714e+06;1.36346e+06;2.64314e+06;384695;388995;369285;495200;513595;355800;47570;658755;26080;92050;92820;29120;55865;51980;53240;53215;56260;58505;27495;31270;159470;179705;187710;164425;120105;123680;104855;105660
1100;2.96117e+07;2.83657e+07;1.92545e+07;3.57065e+07;5.1189e+06;5.70088e+06;4.7334e+06;6.60446e+06;3.94572e+06;4.9339e+06;243700;8.57767e+06;71465;141565;138220;98560;149790;147520;148325;149705;305040;380845;117505;126740;733000;798930;834105;749835;507450;523480;461720;446995
2100;9.72129e+07;1.01594e+08;6.71705e+07;1.33835e+08;1.79824e+07;1.80018e+07;1.74014e+07;2.43316e+07;1.34353e+07;1.5599e+07;485875;3.16668e+07;135100;205450;209945;188390;284020;268460;283935;283900;527635;521010;257500;258505;1.51112e+06;1.7053e+06;1.98456e+06;1.60385e+06;1.10438e+06;1.112e+06;959865;910315
3100;2.14035e+08;2.27322e+08;1.4674e+08;2.8668e+08;3.86714e+07;3.90608e+07;3.82036e+07;5.33158e+07;2.95472e+07;3.5925e+07;692575;6.88893e+07;187605;265500;265700;263685;384755;400735;393345;387705;776645;800575;393110;403925;2.6932e+06;2.72908e+06;2.77592e+06;2.49362e+06;1.61607e+06;1.71744e+06;1.48688e+06;1.41674e+06
4100;3.79109e+08;3.91756e+08;2.55402e+08;5.04343e+08;6.67058e+07;6.72458e+07;6.742e+07;9.43039e+07;5.31569e+07;6.00825e+07;1.08282e+06;1.19951e+08;248785;325310;341090;371745;684255;508690;541735;534135;1.11091e+06;1.08265e+06;553310;517635;3.12996e+06;3.68714e+06;3.78206e+06;3.7722e+06;2.44491e+06;2.37243e+06;2.00696e+06;1.96769e+06
